  ___  _____  _____   _                _                  _ 
 / _ \/  __ \|  ___| | |              | |                | |
/ /_\ \ /  \/| |__   | |__   __ _  ___| | _____ _ __   __| |
|  _  | |    |  __|  | '_ \ / _` |/ __| |/ / _ \ '_ \ / _` |
| | | | \__/\| |___  | |_) | (_| | (__|   <  __/ | | | (_| |
\_| |_/\____/\____/  |_.__/ \__,_|\___|_|\_\___|_| |_|\__,_|
                                                            
                                                            